List of Command-Line Tools | Data Science at the Command Line, 2e
…
$ type rush
rush is /usr/local/lib/R/site-library/rush/exec/rush
 
$ rush --help
 
$ rush run '6*7'
42
 
$ rush run --tidyverse 'filter(starwars, species == "Human") %>% select(name)'
# A tibble: 35 x 1
   name
   <chr>
 1 Luke Skywalker
 2 Darth Vader
 3 Leia Organa
 4 Owen Lars
 5 Beru Whitesun lars
 6 Biggs Darklighter
 7 Obi-Wan Kenobi
 8 Anakin Skywalker
 9 Wilhuff Tarkin
10 Han Solo
# … with 25 more rows
…
